HAPST en R: Clase 4 - 5
…
Show code

calibration_tbl <- models_tbl %>%
  # Calibracion en datos de test para evaluacion de rendimiento
  modeltime_calibrate(new_data = testing(splits)) %>%
  # Pronostico en datos de test
  modeltime_forecast(
    new_data    = testing(splits),
    actual_data = us_monthly
  )
calibration_tbl

# A tibble: 830 × 7
   .model_id .model_desc .key   .index      .value .conf_lo .conf_hi
       <int> <chr>       <fct>  <date>       <dbl>    <dbl>    <dbl>
 1        NA ACTUAL      actual 2001-01-01 2676998       NA       NA
 2        NA ACTUAL      actual 2001-02-01 2309464       NA       NA
 3        NA ACTUAL      actual 2001-03-01 2246633       NA       NA
 4        NA ACTUAL      actual 2001-04-01 1807170       NA       NA
 5        NA ACTUAL      actual 2001-05-01 1522382       NA       NA
 6        NA ACTUAL      actual 2001-06-01 1444378       NA       NA
 7        NA ACTUAL      actual 2001-07-01 1598071       NA       NA
 8        NA ACTUAL      actual 2001-08-01 1669178       NA       NA
 9        NA ACTUAL      actual 2001-09-01 1494128       NA       NA
10        NA ACTUAL      actual 2001-10-01 1649073       NA       NA
# … with 820 more rows
…
